>> 17224170564536208331044739135240 120 0 0
<< 47822784255766144024802017457519767176536362722643310377047737093834072013421612796939288088959885152264072883538358339520292044993882228028813545867083 91 0 118403478840638811252590157007694631462688939942340546046533684846501635924592970152922976197639002563796245403212940650680857484808942217485763779723031500948989486378342819037184
- 14550439493524599753499481342376724419004529153229743597937927452744781988906248534110985906498869468457687310169917741022986100 19615775266081965521082661395690052622714253433211910941782568753990386700 0 14550439493524599753499481342376724419004529153229743578322152186662816467823587138420933283784616035245776368387348987032599400
+ 2732879525939527885802 46449142533491531905573647636717836295929048748961579761824569631058939868837333715175777001370572270161303832190739405316544625303077175782 0 46449142533491531905573647636717836295929048748961579761824569631058939868837333715175777001370572270161303832190739408049424151242605061584
% 1746075977027849873932385244128554865921544654565646352694561970640132470552742890646546556944974 49884245475879637179079791053036942419796160386524149466607064181 0 2268142895757879424188011255438968954452424249706695301999483027
/ 2809742847788044938092757629914788148548186761328164157945001472274202142116226543065812321974308686339982995572879550585908721556484030804007288210250 3870497285751962315 0 725938462256838030947376205066517052009882463956265903302537442516578316490740255439459016034514991862356255958426793987707852323544
* 4446195182380106931908498448146872055077916714 22848699644796125655072741084170670223157885041515949353363060318355285002992 0 101589778284342594379933268880884421513913020664204840036008481322338460490162057116846807457618176793906153880526616808288
**% 7951015401458032163 16257808762925434045 113928070253810189444434530286012494586091146706087990489049345286743602692220915538138870735649527448043873485938 79674962162080799444558928303637761863092808678545777265997563161593235091611832450775620145774555127386088550387
*% 161742317010397081870937359796154117268818357400500006383361750031852896 168844270524269654085012628258186396076510298279714320143095904489002529581852365391544921746729796436571749543593886647755271794485601604 4293708197032577707616730825901203122558178593881236491233667971452569 4090152328138004437997220746831784797415514587912542827372498085311370
*/% 55 8706967260914426917851563979340839216082592893368860904 0 8073733278302468596553268417206960000367495228396580111
